<?xml version="1.0" encoding="utf-8"?>
<!-- Generator: Adobe Illustrator 21.1.0, SVG Export Plug-In . SVG Version: 6.00 Build 0)  -->
<svg version="1.1" id="Layer_1" xmlns="http://www.w3.org/2000/svg" xmlns:xlink="http://www.w3.org/1999/xlink" x="0px" y="0px"
	 viewBox="0 0 1080 1080" style="enable-background:new 0 0 1080 1080;" xml:space="preserve">
<style type="text/css">
	.st0{fill:#16C6CC;}
	.st1{fill:#FFFFFF;}
	.st2{fill:#F2F2F2;}
	.st3{fill:#D9D8D7;}
	.st4{fill:#242D3C;}
	.st5{fill:#E6E5E5;}
	.st6{fill:#CCCBCA;}
	.st7{fill:#21D8DE;}
	.st8{fill:#F15424;}
	.st9{fill:#131A26;}
</style>
<g>
	<rect class="st0" width="1080" height="1080"/>
	<g>
		<path class="st1" d="M415.2,949.6l-20.6-28.2v28.2h-9.2v-43.2h9.5l20,27.2v-27.2h9.2v43.2H415.2z"/>
		<path class="st1" d="M432.7,949.6v-43.2h30.6v8.1h-21.4v9.1h20.9v8.1h-20.9v9.9h21.4v8.1H432.7z"/>
		<path class="st1" d="M480.4,949.6v-35.1h-12.6v-8.1h34.5v8.1h-12.6v35.1H480.4z"/>
		<path class="st1" d="M541.2,949.6l-7.6-29.7l-7.5,29.7h-9.8l-12.4-43.2h10.3l7.6,31.2l8.2-31.2h7.2l8.2,31.2l7.6-31.2h10.3
			L551,949.6H541.2z"/>
		<path class="st1" d="M564.3,928c0-13,9.5-22.4,22.6-22.4c13,0,22.6,9.3,22.6,22.4c0,13-9.5,22.4-22.6,22.4
			C573.8,950.4,564.3,941.1,564.3,928z M600,928c0-8.1-5.1-14.2-13.1-14.2c-8,0-13.2,6.1-13.2,14.2c0,8,5.1,14.2,13.2,14.2
			C594.9,942.2,600,936.1,600,928z"/>
		<path class="st1" d="M640.3,949.6l-8.5-15.4h-6.7v15.4h-9.2v-43.2h20.2c9,0,14.6,5.9,14.6,13.9c0,7.6-4.9,11.7-9.5,12.8l9.8,16.5
			H640.3z M641.3,920.3c0-3.6-2.8-5.8-6.4-5.8h-9.7v11.7h9.7C638.5,926.2,641.3,924,641.3,920.3z"/>
		<path class="st1" d="M683.2,949.6l-13.1-17.4l-3.4,4.1v13.3h-9.2v-43.2h9.2v19.3l15.3-19.3h11.3l-17.2,20.3l18.3,22.9H683.2z"/>
	</g>
	<g>
		<g>
			<g>
				<polygon class="st2" points="203.4,581.4 155,581.4 161.2,551.5 197.2,551.5 				"/>
				<polygon class="st3" points="203.4,581.4 197.2,551.5 161.2,551.5 191,581.4 				"/>
				<path class="st1" d="M216.3,585h-74.3v-2.1c0-0.4,0.1-0.8,0.5-1.1c0.3-0.3,0.7-0.5,1.1-0.5h71.1c0.4,0,0.8,0.2,1.1,0.5
					c0.3,0.3,0.5,0.7,0.5,1.1V585z"/>
			</g>
			<path class="st4" d="M90.9,428.4c-2.5,0-4.5,2-4.5,4.5v114c0,2.5,2,4.5,4.5,4.5h176.6c2.5,0,4.5-2,4.5-4.5V433
				c0-2.5-2-4.5-4.5-4.5H90.9z"/>
			<rect x="95.8" y="437.8" class="st1" width="166.9" height="104.3"/>
			<g>
				<rect x="117.8" y="470.7" class="st5" width="115.1" height="8.4"/>
				<rect x="117.8" y="483.3" class="st5" width="115.1" height="8.4"/>
				<rect x="146.2" y="506.3" class="st6" width="58.2" height="12.7"/>
				<rect x="159.4" y="511.5" class="st2" width="31.8" height="2.2"/>
				<rect x="117.8" y="470.7" class="st7" width="80.9" height="8.4"/>
				<rect x="117.8" y="483.3" class="st8" width="39.9" height="8.4"/>
			</g>
		</g>
		<g>
			<path class="st4" d="M147.5,829.8c-6,0-10.9-4.9-10.9-10.9V684.2c0-6,4.9-10.9,10.9-10.9h63.4c6,0,10.9,4.9,10.9,10.9v134.7
				c0,6-4.9,10.9-10.9,10.9H147.5z"/>
			<path class="st9" d="M188.7,818.5c0,1.4-1.2,2.6-2.6,2.6h-13.7c-1.4,0-2.6-1.2-2.6-2.6v-1.1c0-1.4,1.2-2.6,2.6-2.6h13.7
				c1.4,0,2.6,1.2,2.6,2.6V818.5z"/>
			<path class="st9" d="M182.4,685.1c0,1.7-1.4,3.1-3.1,3.1c-1.8,0-3.2-1.4-3.2-3.1c0-1.7,1.4-3.1,3.2-3.1
				C181,682,182.4,683.4,182.4,685.1z"/>
			<path class="st1" d="M180.7,685.1c0,0.8-0.6,1.5-1.5,1.5c-0.8,0-1.5-0.7-1.5-1.5c0-0.8,0.7-1.5,1.5-1.5
				C180.1,683.6,180.7,684.3,180.7,685.1z"/>
			<rect x="142.8" y="696.9" class="st1" width="72.8" height="109.2"/>
			<g>
				<polygon class="st8" points="173.3,772.4 168.7,772.4 168.7,732.4 200.9,732.4 200.9,736.9 173.3,736.9 				"/>
				<polygon class="st8" points="203.2,761.7 198.6,761.7 198.6,726.2 168.7,726.2 168.7,721.7 203.2,721.7 				"/>
				<path class="st8" d="M194.2,770.7c-5,0-9-4.1-9-9.1c0-5,4.1-9.1,9-9.1c5,0,9.1,4.1,9.1,9.1C203.2,766.7,199.1,770.7,194.2,770.7
					z M194.2,757.2c-2.5,0-4.5,2-4.5,4.5c0,2.5,2,4.5,4.5,4.5c2.5,0,4.5-2,4.5-4.5C198.6,759.2,196.6,757.2,194.2,757.2z"/>
				<path class="st8" d="M164.3,781.4c-5,0-9-4.1-9-9s4.1-9.1,9-9.1c5,0,9.1,4.1,9.1,9.1S169.3,781.4,164.3,781.4z M164.3,767.9
					c-2.5,0-4.5,2-4.5,4.5c0,2.5,2,4.5,4.5,4.5c2.5,0,4.5-2,4.5-4.5C168.7,769.9,166.7,767.9,164.3,767.9z"/>
			</g>
		</g>
		<g>
			<g>
				<g>
					<rect x="489.3" y="674.7" class="st1" width="7" height="5.6"/>
					
						<rect x="475" y="678.5" transform="matrix(0.8662 -0.4997 0.4997 0.8662 -276.4322 330.2367)" class="st1" width="7" height="5.6"/>
					<polygon class="st1" points="467.3,687.4 463.8,693.5 468.7,696.3 472.1,690.2 					"/>
					<rect x="461.3" y="702.7" class="st1" width="5.6" height="7"/>
					<polygon class="st1" points="463.8,718.9 467.3,724.9 472.1,722.1 468.7,716.1 					"/>
					
						<rect x="475.7" y="727.5" transform="matrix(0.499 -0.8666 0.8666 0.499 -393.7666 780.8612)" class="st1" width="5.6" height="7"/>
					<rect x="489.3" y="732" class="st1" width="7" height="5.6"/>
					<polygon class="st1" points="505.5,735.2 511.6,731.7 508.8,726.8 502.7,730.3 					"/>
					
						<rect x="514.2" y="717.7" transform="matrix(0.5003 -0.8659 0.8659 0.5003 -365.1751 808.2767)" class="st1" width="7" height="5.6"/>
					<rect x="518.7" y="702.7" class="st1" width="5.6" height="7"/>
					
						<rect x="514.9" y="688.3" transform="matrix(0.8661 -0.4999 0.4999 0.8661 -276.5074 351.38)" class="st1" width="5.6" height="7"/>
					
						<rect x="504.3" y="677.8" transform="matrix(0.5001 -0.866 0.866 0.5001 -336.4865 779.8084)" class="st1" width="5.6" height="7"/>
				</g>
				<path class="st1" d="M492.8,679.7c-14.6,0-26.5,11.8-26.5,26.5c0,14.6,11.8,26.5,26.5,26.5c14.6,0,26.5-11.8,26.5-26.5
					C519.3,691.6,507.4,679.7,492.8,679.7z M492.8,722.3c-8.9,0-16.1-7.2-16.1-16.1c0-8.9,7.2-16.1,16.1-16.1
					c8.9,0,16.1,7.2,16.1,16.1C508.9,715.1,501.7,722.3,492.8,722.3z"/>
			</g>
		</g>
		<g>
			<path class="st4" d="M967.8,439.2c-1.4-1.4-3.1-2-4.9-2H767.2c-1.8,0-3.5,0.7-4.9,2c-1.3,1.4-2,3.1-2,4.9v121.1h209.6V444.1
				C969.8,442.3,969.2,440.5,967.8,439.2z"/>
			<path class="st9" d="M867.4,442.6c0,1.3-1,2.4-2.3,2.4c-1.3,0-2.4-1-2.4-2.4c0-1.3,1-2.3,2.4-2.3
				C866.3,440.2,867.4,441.3,867.4,442.6z"/>
			<path class="st1" d="M866,442.6c0,0.5-0.4,1-1,1c-0.5,0-1-0.4-1-1c0-0.5,0.4-1,1-1C865.6,441.6,866,442.1,866,442.6z"/>
			<path class="st6" d="M993.6,569.2c-3.7,4.3-9.3,7-15.4,7H751.9c-6.2,0-11.7-2.7-15.4-7H993.6z"/>
			<path class="st2" d="M993.6,569.3H736.5v-2.9c0-0.3,0.1-0.6,0.3-0.8c0.2-0.2,0.5-0.3,0.8-0.3h254.8c0.3,0,0.6,0.1,0.8,0.3
				c0.2,0.2,0.3,0.5,0.3,0.8V569.3z"/>
			<path class="st4" d="M888.9,565.9c0,0.4-0.1,0.7-0.4,1c-0.3,0.2-0.6,0.4-1,0.4h-45c-0.3,0-0.7-0.1-1-0.4c-0.3-0.3-0.4-0.6-0.4-1
				v-0.7h47.8V565.9z"/>
			<g>
				<g>
					<rect x="771.1" y="455.8" class="st1" width="187.8" height="109.3"/>
					<g>
						<rect x="771.1" y="447.8" class="st5" width="187.8" height="8"/>
						<rect x="785" y="450.2" class="st1" width="160" height="3.2"/>
						<rect x="773.9" y="450.2" class="st8" width="8.3" height="3.2"/>
						<g>
							<g>
								<rect x="953" y="450.2" class="st6" width="3.2" height="3.2"/>
								<rect x="947.8" y="450.2" class="st6" width="3.2" height="3.2"/>
							</g>
						</g>
					</g>
				</g>
				<g>
					<rect x="795.7" y="482" class="st8" width="49.4" height="42.2"/>
					<g>
						<g>
							<g>
								<path class="st1" d="M819.2,510.8c-1.4,0-2.5,1.1-2.5,2.5c0,1.4,1.1,2.5,2.5,2.5c1.4,0,2.5-1.1,2.5-2.5
									C821.7,511.9,820.6,510.8,819.2,510.8z"/>
								<path class="st1" d="M829.4,510.8c-1.4,0-2.5,1.1-2.5,2.5c0,1.4,1.1,2.5,2.5,2.5c1.4,0,2.5-1.1,2.5-2.5
									C831.9,511.9,830.8,510.8,829.4,510.8z"/>
								<polygon class="st1" points="831.4,499.7 817.2,499.7 817.7,501.6 830.9,501.6 								"/>
								<polygon class="st1" points="829.7,505.3 830.3,503.4 818.3,503.4 818.9,505.3 								"/>
								<polygon class="st1" points="815.8,495 816.6,497.8 833.9,497.8 831.1,507.2 817.5,507.2 812.4,490.4 803.2,490.4 
									803.2,493.1 810.4,493.1 815.5,509.9 833.1,509.9 837.6,495 								"/>
							</g>
						</g>
					</g>
					<g>
						<g>
							<rect x="878.5" y="482" class="st6" width="55.9" height="2.4"/>
							<g>
								<rect x="855.2" y="482" class="st4" width="18.9" height="2.4"/>
							</g>
							<rect x="855.2" y="489.4" class="st6" width="79.1" height="2.4"/>
							<rect x="855.2" y="496.7" class="st6" width="39.6" height="2.4"/>
						</g>
					</g>
					<g>
						<rect x="795.9" y="529.3" class="st4" width="138.4" height="2.4"/>
						<rect x="795.9" y="536.7" class="st6" width="69.2" height="2.4"/>
					</g>
					<g>
						<polygon class="st6" points="943,506.9 941.4,505.3 948.6,498.1 941.4,490.9 943,489.3 951.8,498.1 						"/>
						<polygon class="st6" points="787,506.9 778.3,498.1 787,489.3 788.6,490.9 781.4,498.1 788.6,505.3 						"/>
					</g>
				</g>
			</g>
		</g>
		<g>
			<path class="st4" d="M484.3,434.3c0-3.2,2.6-5.9,5.9-5.9h96.1c3.3,0,5.9,2.6,5.9,5.9v144.8c0,3.2-2.6,5.8-5.9,5.8h-96.1
				c-3.3,0-5.9-2.6-5.9-5.8V434.3z"/>
			<path class="st9" d="M532.3,578.4c-1.4,0-2.6-1.1-2.6-2.6v-0.6c0-1.5,1.2-2.6,2.6-2.6h11.9c1.4,0,2.6,1.1,2.6,2.6v0.6
				c0,1.5-1.2,2.6-2.6,2.6H532.3z"/>
			<path class="st9" d="M538.2,438.8c-1.5,0-2.7-1.2-2.7-2.7c0-1.5,1.2-2.7,2.7-2.7c1.5,0,2.7,1.2,2.7,2.7
				C540.9,437.6,539.7,438.8,538.2,438.8z"/>
			<path class="st1" d="M538.2,437.2c-0.6,0-1.1-0.5-1.1-1.1c0-0.6,0.5-1.1,1.1-1.1c0.6,0,1.1,0.5,1.1,1.1
				C539.3,436.7,538.8,437.2,538.2,437.2z"/>
			<g>
				<rect x="490.4" y="443.7" class="st1" width="95.7" height="122.3"/>
				<g>
					<g>
						<rect x="494.1" y="464.6" class="st7" width="19.1" height="19.1"/>
						<rect x="517.1" y="464.6" class="st3" width="19.1" height="19.1"/>
						<rect x="540" y="464.6" class="st8" width="19.1" height="19.1"/>
						<rect x="562.9" y="464.6" class="st3" width="19.1" height="19.1"/>
						<rect x="494.1" y="487.5" class="st8" width="19.1" height="19.1"/>
						<rect x="517.1" y="487.5" class="st7" width="19.1" height="19.1"/>
						<rect x="540" y="487.5" class="st7" width="19.1" height="19.1"/>
						<g>
							<rect x="562.9" y="487.5" class="st3" width="19.1" height="19.1"/>
						</g>
						<g>
							<rect x="517.1" y="510.4" class="st3" width="19.1" height="19.1"/>
						</g>
						<rect x="540" y="510.4" class="st3" width="19.1" height="19.1"/>
						<rect x="562.9" y="510.4" class="st3" width="19.1" height="19.1"/>
						<g>
							<rect x="494.1" y="543" class="st3" width="19.1" height="19.1"/>
						</g>
						<rect x="517.1" y="543" class="st8" width="19.1" height="19.1"/>
					</g>
				</g>
				<rect x="490.4" y="443.7" class="st7" width="95.7" height="16.8"/>
			</g>
		</g>
		<g>
			<path class="st4" d="M294.1,237.4v58.2c0,1.6,0.6,3.3,1.9,4.5c1.3,1.3,2.9,1.9,4.6,1.9h116.3c1.7,0,3.3-0.6,4.6-1.9
				c1.2-1.2,1.9-2.9,1.9-4.5v-58.2H294.1z"/>
			<rect x="294.1" y="205.1" class="st1" width="129.2" height="32.3"/>
			<rect x="294.1" y="172.8" class="st1" width="129.2" height="32.3"/>
			<rect x="294.1" y="140.5" class="st1" width="129.2" height="32.3"/>
			<rect x="294.1" y="108.1" class="st1" width="129.2" height="32.3"/>
			<path class="st4" d="M300.5,75.9c-1.7,0-3.3,0.6-4.6,1.9c-1.3,1.2-1.9,2.9-1.9,4.5v25.9h129.2V82.3c0-1.6-0.6-3.3-1.9-4.5
				c-1.3-1.3-2.9-1.9-4.6-1.9H300.5z"/>
			<rect x="294.1" y="139.5" class="st6" width="129.2" height="1.9"/>
			<rect x="294.1" y="171.8" class="st6" width="129.2" height="1.9"/>
			<rect x="294.1" y="204.1" class="st6" width="129.2" height="1.9"/>
			<rect x="313.5" y="121.1" class="st8" width="35.5" height="6.5"/>
			<rect x="300.5" y="88.8" class="st1" width="48.4" height="6.5"/>
			<rect x="300.5" y="121.1" class="st6" width="6.5" height="6.5"/>
			<rect x="410.4" y="121.1" class="st6" width="6.5" height="6.5"/>
			<rect x="410.4" y="88.8" class="st1" width="6.5" height="6.5"/>
			<rect x="410.4" y="153.4" class="st8" width="6.5" height="6.4"/>
			<rect x="410.4" y="185.7" class="st6" width="6.5" height="6.5"/>
			<rect x="410.4" y="218" class="st6" width="6.5" height="6.5"/>
			<rect x="300.5" y="153.4" class="st6" width="35.5" height="6.4"/>
			<rect x="313.5" y="185.7" class="st6" width="35.5" height="6.5"/>
			<rect x="300.5" y="185.7" class="st6" width="6.5" height="6.5"/>
			<rect x="300.5" y="218" class="st6" width="35.5" height="6.5"/>
		</g>
		<g>
			<path class="st1" d="M358.7,453.4c-10.4,0-18.8,8.4-18.8,18.8v11.2h6v-11.2c0-7,5.7-12.7,12.8-12.7c7,0,12.8,5.7,12.8,12.7v11.2
				h6v-11.2C377.5,461.8,369.1,453.4,358.7,453.4z"/>
			<rect x="333" y="483.3" class="st8" width="51.4" height="46.8"/>
			<rect x="342.8" y="503.2" class="st1" width="31.9" height="7"/>
		</g>
		<g>
			<polygon class="st5" points="358.7,673.4 325.6,697.3 325.6,737.6 391.8,737.6 391.8,697.3 			"/>
			<rect x="332.7" y="668.8" class="st1" width="52.1" height="52.3"/>
			<polygon class="st2" points="391.8,697.3 391.8,737.6 358.7,717.5 			"/>
			<polygon class="st2" points="358.7,717.5 325.6,737.6 325.6,697.3 			"/>
			<polygon class="st6" points="391.8,737.6 325.6,737.6 358.7,717.5 			"/>
			<path class="st8" d="M368.3,684.1c-2.2-2.2-5.1-3.4-8.2-3.4c-7.9,0-14.3,6.4-14.3,14.3c0,7.9,6.4,14.3,14.3,14.3h6.7v-1.9H360
				c-6.9,0-12.4-5.6-12.4-12.4c0-6.9,5.6-12.4,12.4-12.4c2.6,0,5.1,1,6.9,2.9c1.8,1.8,2.9,4.3,2.9,6.9v7.3c0,0.3-0.1,0.6-0.3,0.8
				c-0.4,0.4-1.1,0.4-1.5,0c-0.2-0.2-0.3-0.5-0.3-0.8v-11.4h-1.9v1.7c-1.4-1.6-3.5-2.6-5.7-2.6c-4.2,0-7.6,3.4-7.6,7.6
				c0,4.2,3.4,7.6,7.6,7.6c2.3,0,4.4-1,5.8-2.6c0.1,0.7,0.4,1.3,0.8,1.8c0.6,0.6,1.3,0.9,2.1,0.9c0.8,0,1.5-0.3,2.1-0.9
				c0.6-0.6,0.9-1.3,0.9-2.1v-7.3C371.7,689.2,370.4,686.3,368.3,684.1z M360,700.8c-3.2,0-5.7-2.6-5.7-5.7c0-3.2,2.6-5.7,5.7-5.7
				c3.2,0,5.7,2.6,5.7,5.7C365.8,698.2,363.2,700.8,360,700.8z"/>
			<g>
				<rect x="302.2" y="710" class="st1" width="23.4" height="2.1"/>
				<rect x="281.3" y="722.9" class="st1" width="44.3" height="2.1"/>
			</g>
		</g>
		<g>
			<path class="st1" d="M306.1,338.9c-2.5,0-4.6-2-4.6-4.6c0-2.5,2-4.6,4.6-4.6c2.5,0,4.6,2,4.6,4.6
				C310.6,336.9,308.6,338.9,306.1,338.9z M306.1,332c-1.3,0-2.4,1.1-2.4,2.4c0,1.3,1.1,2.4,2.4,2.4c1.3,0,2.4-1.1,2.4-2.4
				C308.5,333,307.4,332,306.1,332z"/>
			<rect x="305" y="337.8" class="st1" width="2.1" height="74.1"/>
			<polygon class="st1" points="306.1,413.5 298.4,405.8 299.9,404.3 306.1,410.5 312.3,404.3 313.8,405.8 			"/>
		</g>
		<g>
			<path class="st4" d="M358.7,350c-4.6,0-8.4-3.8-8.4-8.4c0-4.7,3.8-8.4,8.4-8.4c4.7,0,8.4,3.8,8.4,8.4
				C367.1,346.2,363.4,350,358.7,350z M358.7,334.4c-3.9,0-7.1,3.2-7.1,7.1c0,3.9,3.2,7.1,7.1,7.1c3.9,0,7.1-3.2,7.1-7.1
				C365.8,337.6,362.6,334.4,358.7,334.4z"/>
			<path class="st4" d="M387.8,380.7c0,16.1-13,29.1-29.1,29.1c-16.1,0-29.1-13-29.1-29.1c0-16.1,13-29.1,29.1-29.1
				C374.8,351.6,387.8,364.6,387.8,380.7z"/>
			<ellipse class="st1" cx="358.7" cy="380.7" rx="25.7" ry="25.7"/>
			<circle class="st6" cx="358.7" cy="368.8" r="6.8"/>
			<path class="st6" d="M358.7,388.7c-2.1,0-3.9,1.7-3.9,3.9c0,2.1,1.7,3.9,3.9,3.9c2.1,0,3.9-1.7,3.9-3.9
				C362.6,390.5,360.8,388.7,358.7,388.7z M358.7,395.5c-1.6,0-2.9-1.3-2.9-2.9c0-1.6,1.3-2.9,2.9-2.9c1.6,0,2.9,1.3,2.9,2.9
				C361.6,394.2,360.3,395.5,358.7,395.5z"/>
			<g>
				<g>
					<rect x="358.5" y="356.7" class="st6" width="0.5" height="2.1"/>
					
						<rect x="356.1" y="356.8" transform="matrix(0.9938 -0.1108 0.1108 0.9938 -37.457 41.6815)" class="st6" width="0.5" height="2.1"/>
					<polygon class="st6" points="354.4,359.2 353.9,359.3 353.5,357.2 353.9,357.1 					"/>
					<polygon class="st6" points="352.2,359.8 351.7,360 351.1,357.9 351.5,357.8 					"/>
					<polygon class="st6" points="350,360.6 349.6,360.8 348.7,358.8 349.2,358.7 					"/>
					<polygon class="st6" points="348,361.6 347.6,361.9 346.5,360 346.9,359.8 					"/>
					<polygon class="st6" points="346,362.8 345.6,363.1 344.4,361.4 344.8,361.1 					"/>
					
						<rect x="343.1" y="362.6" transform="matrix(0.7422 -0.6701 0.6701 0.7422 -155.1822 323.8286)" class="st6" width="0.5" height="2.1"/>
					<polygon class="st6" points="342.6,365.9 342.3,366.2 340.7,364.8 341,364.4 					"/>
					<polygon class="st6" points="341.1,367.6 340.9,368 339.1,366.8 339.4,366.4 					"/>
					<polygon class="st6" points="339.9,369.5 339.6,369.9 337.8,368.9 338,368.5 					"/>
					<polygon class="st6" points="338.8,371.6 338.6,372 336.7,371.1 336.9,370.7 					"/>
					<polygon class="st6" points="338,373.7 337.8,374.2 335.8,373.5 335.9,373 					"/>
					<polygon class="st6" points="337.4,375.9 337.3,376.4 335.2,375.9 335.3,375.5 					"/>
					
						<rect x="335.6" y="377.2" transform="matrix(0.1032 -0.9947 0.9947 0.1032 -75.0567 673.3229)" class="st6" width="0.5" height="2.1"/>
					<rect x="334.7" y="380.4" class="st6" width="2.1" height="0.5"/>
					
						<rect x="334.8" y="382.8" transform="matrix(0.9946 -0.1042 0.1042 0.9946 -38.0882 37.0838)" class="st6" width="2.1" height="0.5"/>
					<polygon class="st6" points="337.3,385 337.4,385.5 335.3,385.9 335.2,385.4 					"/>
					
						<rect x="335.8" y="387.5" transform="matrix(0.9531 -0.3027 0.3027 0.9531 -101.5866 120.1853)" class="st6" width="2.1" height="0.5"/>
					
						<rect x="336.7" y="389.8" transform="matrix(0.9138 -0.4063 0.4063 0.9138 -129.3211 170.8492)" class="st6" width="2.1" height="0.5"/>
					<polygon class="st6" points="339.6,391.4 339.9,391.8 338,392.9 337.8,392.5 					"/>
					<polygon class="st6" points="340.9,393.3 341.1,393.7 339.4,395 339.1,394.6 					"/>
					
						<rect x="340.6" y="395.8" transform="matrix(0.7359 -0.6771 0.6771 0.7359 -177.9283 335.9617)" class="st6" width="2.1" height="0.5"/>
					
						<rect x="342.3" y="397.5" transform="matrix(0.6705 -0.7419 0.7419 0.6705 -181.9491 385.7834)" class="st6" width="2.1" height="0.5"/>
					<polygon class="st6" points="345.6,398.2 346,398.5 344.8,400.3 344.4,400 					"/>
					<polygon class="st6" points="347.6,399.5 348,399.8 346.9,401.6 346.5,401.4 					"/>
					
						<rect x="348.3" y="401.4" transform="matrix(0.4065 -0.9136 0.9136 0.4065 -159.6171 557.559)" class="st6" width="2.1" height="0.5"/>
					<polygon class="st6" points="351.7,401.4 352.2,401.6 351.5,403.6 351.1,403.4 					"/>
					
						<rect x="352.9" y="402.9" transform="matrix(0.1987 -0.9801 0.9801 0.1987 -111.4776 669.912)" class="st6" width="2.1" height="0.5"/>
					<polygon class="st6" points="356.2,402.4 356.7,402.5 356.4,404.6 356,404.5 					"/>
					<rect x="358.5" y="402.6" class="st6" width="0.5" height="2.1"/>
					
						<rect x="360.9" y="402.4" transform="matrix(0.9944 -0.1056 0.1056 0.9944 -40.5764 40.372)" class="st6" width="0.5" height="2.1"/>
					<polygon class="st6" points="363,402.1 363.5,402 363.9,404.1 363.5,404.2 					"/>
					<polygon class="st6" points="365.2,401.6 365.7,401.4 366.4,403.4 365.9,403.6 					"/>
					<polygon class="st6" points="367.4,400.8 367.8,400.6 368.7,402.5 368.2,402.7 					"/>
					<polygon class="st6" points="369.4,399.8 369.9,399.5 370.9,401.4 370.5,401.6 					"/>
					<polygon class="st6" points="371.4,398.5 371.8,398.2 373,400 372.6,400.3 					"/>
					
						<rect x="373.8" y="396.7" transform="matrix(0.7422 -0.6702 0.6702 0.7422 -170.1237 353.2496)" class="st6" width="0.5" height="2.1"/>
					<polygon class="st6" points="374.8,395.5 375.1,395.1 376.7,396.6 376.4,396.9 					"/>
					<polygon class="st6" points="376.3,393.7 376.5,393.3 378.3,394.6 378,395 					"/>
					<polygon class="st6" points="377.5,391.8 377.8,391.4 379.6,392.5 379.4,392.9 					"/>
					<polygon class="st6" points="378.6,389.8 378.8,389.4 380.7,390.2 380.5,390.7 					"/>
					
						<rect x="380.3" y="386.7" transform="matrix(0.3057 -0.9521 0.9521 0.3057 -105.0221 631.5243)" class="st6" width="0.5" height="2.1"/>
					<polygon class="st6" points="380.1,385.5 380.2,385 382.2,385.4 382.1,385.9 					"/>
					<polygon class="st6" points="380.4,383.2 380.5,382.7 382.6,383 382.6,383.4 					"/>
					<rect x="380.6" y="380.4" class="st6" width="2.1" height="0.5"/>
					<polygon class="st6" points="380.5,378.6 380.4,378.2 382.6,377.9 382.6,378.4 					"/>
					<polygon class="st6" points="380.2,376.4 380.1,375.9 382.1,375.5 382.2,375.9 					"/>
					<polygon class="st6" points="379.6,374.2 379.4,373.7 381.5,373 381.6,373.5 					"/>
					<polygon class="st6" points="378.8,372 378.6,371.6 380.5,370.7 380.7,371.1 					"/>
					<polygon class="st6" points="377.8,370 377.5,369.5 379.4,368.5 379.6,368.9 					"/>
					
						<rect x="376.2" y="367" transform="matrix(0.8106 -0.5856 0.5856 0.8106 -143.5755 290.4693)" class="st6" width="2.1" height="0.5"/>
					<polygon class="st6" points="375.1,366.2 374.8,365.9 376.4,364.4 376.7,364.8 					"/>
					
						<rect x="373" y="363.4" transform="matrix(0.6698 -0.7425 0.7425 0.6698 -146.5018 397.7936)" class="st6" width="2.1" height="0.5"/>
					
						<rect x="371.1" y="361.9" transform="matrix(0.5777 -0.8163 0.8163 0.5777 -138.4021 456.7435)" class="st6" width="2.1" height="0.5"/>
					<polygon class="st6" points="369.9,361.9 369.4,361.6 370.5,359.8 370.9,360 					"/>
					<polygon class="st6" points="367.8,360.8 367.4,360.6 368.2,358.7 368.7,358.8 					"/>
					<polygon class="st6" points="365.7,360 365.2,359.8 365.9,357.8 366.4,357.9 					"/>
					<polygon class="st6" points="363.5,359.3 363,359.2 363.5,357.1 363.9,357.2 					"/>
					
						<rect x="360" y="357.6" transform="matrix(0.1115 -0.9938 0.9938 0.1115 -34.8092 676.7976)" class="st6" width="2.1" height="0.5"/>
				</g>
			</g>
			<polygon class="st8" points="354.2,383.2 353.8,382.3 380.5,370.4 380.9,371.3 			"/>
			<circle class="st4" cx="358.7" cy="380.7" r="2.5"/>
			<ellipse class="st1" cx="358.7" cy="380.7" rx="1.4" ry="1.4"/>
			<rect x="356.3" y="346.8" class="st4" width="4.8" height="4.8"/>
			<rect x="354.8" y="343" class="st4" width="7.8" height="3.9"/>
			<g>
				<g>
					<polygon class="st4" points="377.7,358.7 380.7,361.7 382.1,360.3 379.1,357.3 					"/>
					
						<rect x="380" y="354.4" transform="matrix(0.7067 -0.7075 0.7075 0.7067 -140.8675 375.0741)" class="st4" width="3.9" height="6.1"/>
					<polygon class="st4" points="380.9,353.6 385.8,358.5 386.6,357.7 381.7,352.8 					"/>
				</g>
				<g>
					
						<rect x="335.3" y="358.5" transform="matrix(0.7065 -0.7077 0.7077 0.7065 -155.3648 344.3414)" class="st4" width="4.3" height="1.9"/>
					
						<rect x="332.4" y="355.5" transform="matrix(0.7072 -0.707 0.707 0.7072 -154.4965 341.7986)" class="st4" width="6.1" height="3.9"/>
					
						<rect x="330.2" y="355.1" transform="matrix(0.7073 -0.7069 0.7069 0.7073 -153.7637 339.973)" class="st4" width="6.9" height="1.1"/>
				</g>
			</g>
		</g>
		<g>
			<ellipse class="st1" cx="193" cy="275.4" rx="3.1" ry="3.1"/>
			<ellipse class="st1" cx="179.2" cy="275.4" rx="3.1" ry="3.1"/>
			<ellipse class="st1" cx="206.8" cy="275.4" rx="3.1" ry="3.1"/>
			<ellipse class="st1" cx="220.6" cy="275.4" rx="3.1" ry="3.1"/>
			<ellipse class="st1" cx="234.4" cy="275.4" rx="3.1" ry="3.1"/>
			<path class="st1" d="M248.3,278.4c-1.7,0-3.1-1.4-3.1-3.1c0-1.7,1.4-3.1,3.1-3.1c1.7,0,3.1,1.4,3.1,3.1
				C251.3,277.1,249.9,278.4,248.3,278.4z"/>
			<ellipse class="st1" cx="262.1" cy="275.4" rx="3.1" ry="3.1"/>
			<ellipse class="st1" cx="275.9" cy="275.4" rx="3.1" ry="3.1"/>
			<circle class="st1" cx="441.5" cy="275.4" r="3.1"/>
			<path class="st1" d="M455.3,278.4c-1.7,0-3.1-1.4-3.1-3.1c0-1.7,1.4-3.1,3.1-3.1c1.7,0,3.1,1.4,3.1,3.1
				C458.4,277.1,457,278.4,455.3,278.4z"/>
			<ellipse class="st1" cx="469.1" cy="275.4" rx="3.1" ry="3.1"/>
			<ellipse class="st1" cx="483" cy="275.4" rx="3.1" ry="3.1"/>
			<circle class="st1" cx="496.8" cy="275.4" r="3.1"/>
			<ellipse class="st1" cx="510.6" cy="275.4" rx="3.1" ry="3.1"/>
			<path class="st1" d="M524.4,278.4c-1.7,0-3.1-1.4-3.1-3.1c0-1.7,1.4-3.1,3.1-3.1c1.7,0,3.1,1.4,3.1,3.1
				C527.4,277.1,526.1,278.4,524.4,278.4z"/>
			<path class="st1" d="M538.2,278.4c-1.7,0-3.1-1.4-3.1-3.1c0-1.7,1.4-3.1,3.1-3.1c1.7,0,3.1,1.4,3.1,3.1
				C541.2,277.1,539.9,278.4,538.2,278.4z"/>
			<ellipse class="st1" cx="621" cy="506.7" rx="3.1" ry="3.1"/>
			<ellipse class="st1" cx="607.2" cy="506.7" rx="3.1" ry="3.1"/>
			<ellipse class="st1" cx="634.8" cy="506.7" rx="3.1" ry="3.1"/>
			<ellipse class="st1" cx="648.6" cy="506.7" rx="3.1" ry="3.1"/>
			<circle class="st1" cx="662.4" cy="506.7" r="3.1"/>
			<ellipse class="st1" cx="676.2" cy="506.7" rx="3.1" ry="3.1"/>
			<ellipse class="st1" cx="690" cy="506.7" rx="3.1" ry="3.1"/>
			<ellipse class="st1" cx="703.8" cy="506.7" rx="3.1" ry="3.1"/>
			<path class="st1" d="M717.6,509.8c-1.7,0-3.1-1.4-3.1-3.1c0-1.7,1.4-3.1,3.1-3.1c1.7,0,3.1,1.4,3.1,3.1
				C720.7,508.4,719.3,509.8,717.6,509.8z"/>
			<ellipse class="st1" cx="731.4" cy="506.7" rx="3.1" ry="3.1"/>
			<ellipse class="st1" cx="745.2" cy="506.7" rx="3.1" ry="3.1"/>
			<ellipse class="st1" cx="399.8" cy="506.7" rx="3.1" ry="3.1"/>
			<ellipse class="st1" cx="413.6" cy="506.7" rx="3.1" ry="3.1"/>
			<path class="st1" d="M427.4,509.8c-1.7,0-3.1-1.4-3.1-3.1c0-1.7,1.4-3.1,3.1-3.1c1.7,0,3.1,1.4,3.1,3.1
				C430.5,508.4,429.1,509.8,427.4,509.8z"/>
			<ellipse class="st1" cx="441.2" cy="506.7" rx="3.1" ry="3.1"/>
			<ellipse class="st1" cx="455" cy="506.7" rx="3.1" ry="3.1"/>
			<ellipse class="st1" cx="468.9" cy="506.7" rx="3.1" ry="3.1"/>
			<ellipse class="st1" cx="302.5" cy="506.7" rx="3.1" ry="3.1"/>
			<ellipse class="st1" cx="288.7" cy="506.7" rx="3.1" ry="3.1"/>
			<ellipse class="st1" cx="316.3" cy="506.7" rx="3.1" ry="3.1"/>
			<ellipse class="st1" cx="179.2" cy="413.4" rx="3.1" ry="3.1"/>
			<ellipse class="st1" cx="179.2" cy="399.6" rx="3.1" ry="3.1"/>
			<ellipse class="st1" cx="179.2" cy="385.8" rx="3.1" ry="3.1"/>
			<circle class="st1" cx="179.2" cy="372" r="3.1"/>
			<ellipse class="st1" cx="179.2" cy="358.2" rx="3.1" ry="3.1"/>
			<circle class="st1" cx="179.2" cy="344.4" r="3.1"/>
			<ellipse class="st1" cx="179.2" cy="330.6" rx="3.1" ry="3.1"/>
			<circle class="st1" cx="179.2" cy="316.8" r="3.1"/>
			<circle class="st1" cx="179.2" cy="303" r="3.1"/>
			<ellipse class="st1" cx="179.2" cy="289.2" rx="3.1" ry="3.1"/>
			<ellipse class="st1" cx="179.2" cy="275.4" rx="3.1" ry="3.1"/>
			<ellipse class="st1" cx="179.2" cy="656.7" rx="3.1" ry="3.1"/>
			<circle class="st1" cx="179.2" cy="642.9" r="3.1"/>
			<circle class="st1" cx="179.2" cy="629.1" r="3.1"/>
			<ellipse class="st1" cx="179.2" cy="615.3" rx="3.1" ry="3.1"/>
			<ellipse class="st1" cx="179.2" cy="601.5" rx="3.1" ry="3.1"/>
			<path class="st1" d="M538.2,416.5c-1.7,0-3.1-1.4-3.1-3.1c0-1.7,1.4-3.1,3.1-3.1c1.7,0,3.1,1.4,3.1,3.1
				C541.3,415.1,539.9,416.5,538.2,416.5z"/>
			<path class="st1" d="M538.2,402.7c-1.7,0-3.1-1.4-3.1-3.1c0-1.7,1.4-3.1,3.1-3.1c1.7,0,3.1,1.4,3.1,3.1
				C541.3,401.3,539.9,402.7,538.2,402.7z"/>
			<path class="st1" d="M538.2,388.9c-1.7,0-3.1-1.4-3.1-3.1c0-1.7,1.4-3.1,3.1-3.1c1.7,0,3.1,1.4,3.1,3.1
				C541.3,387.5,539.9,388.9,538.2,388.9z"/>
			<path class="st1" d="M538.2,375.1c-1.7,0-3.1-1.4-3.1-3.1c0-1.7,1.4-3.1,3.1-3.1c1.7,0,3.1,1.4,3.1,3.1
				C541.3,373.7,539.9,375.1,538.2,375.1z"/>
			<path class="st1" d="M538.2,361.3c-1.7,0-3.1-1.4-3.1-3.1c0-1.7,1.4-3.1,3.1-3.1c1.7,0,3.1,1.4,3.1,3.1
				C541.3,359.9,539.9,361.3,538.2,361.3z"/>
			<path class="st1" d="M538.2,347.5c-1.7,0-3.1-1.4-3.1-3.1c0-1.7,1.4-3.1,3.1-3.1c1.7,0,3.1,1.4,3.1,3.1
				C541.3,346.1,539.9,347.5,538.2,347.5z"/>
			<path class="st1" d="M538.2,333.7c-1.7,0-3.1-1.4-3.1-3.1c0-1.7,1.4-3.1,3.1-3.1c1.7,0,3.1,1.4,3.1,3.1
				C541.3,332.3,539.9,333.7,538.2,333.7z"/>
			<path class="st1" d="M538.2,319.9c-1.7,0-3.1-1.4-3.1-3.1c0-1.7,1.4-3.1,3.1-3.1c1.7,0,3.1,1.4,3.1,3.1
				C541.3,318.5,539.9,319.9,538.2,319.9z"/>
			<path class="st1" d="M538.2,306c-1.7,0-3.1-1.4-3.1-3.1c0-1.7,1.4-3.1,3.1-3.1c1.7,0,3.1,1.4,3.1,3.1
				C541.3,304.7,539.9,306,538.2,306z"/>
			<path class="st1" d="M538.2,292.2c-1.7,0-3.1-1.4-3.1-3.1c0-1.7,1.4-3.1,3.1-3.1c1.7,0,3.1,1.4,3.1,3.1
				C541.3,290.9,539.9,292.2,538.2,292.2z"/>
			<path class="st1" d="M538.2,278.4c-1.7,0-3.1-1.4-3.1-3.1c0-1.7,1.4-3.1,3.1-3.1c1.7,0,3.1,1.4,3.1,3.1
				C541.3,277.1,539.9,278.4,538.2,278.4z"/>
			<path class="st1" d="M538.2,599.6c-1.7,0-3.1-1.4-3.1-3.1c0-1.7,1.4-3.1,3.1-3.1c1.7,0,3.1,1.4,3.1,3.1
				C541.3,598.3,539.9,599.6,538.2,599.6z"/>
			<path class="st1" d="M538.2,613.4c-1.7,0-3.1-1.4-3.1-3.1c0-1.7,1.4-3.1,3.1-3.1c1.7,0,3.1,1.4,3.1,3.1
				C541.3,612,539.9,613.4,538.2,613.4z"/>
			<path class="st1" d="M538.2,627.2c-1.7,0-3.1-1.4-3.1-3.1c0-1.7,1.4-3.1,3.1-3.1c1.7,0,3.1,1.4,3.1,3.1
				C541.3,625.8,539.9,627.2,538.2,627.2z"/>
			<path class="st1" d="M538.2,640.9c-1.7,0-3.1-1.4-3.1-3.1c0-1.7,1.4-3.1,3.1-3.1c1.7,0,3.1,1.4,3.1,3.1
				C541.3,639.5,539.9,640.9,538.2,640.9z"/>
			<path class="st1" d="M538.2,654.7c-1.7,0-3.1-1.4-3.1-3.1c0-1.7,1.4-3.1,3.1-3.1c1.7,0,3.1,1.4,3.1,3.1
				C541.3,653.3,539.9,654.7,538.2,654.7z"/>
			<path class="st1" d="M538.2,668.4c-1.7,0-3.1-1.4-3.1-3.1c0-1.7,1.4-3.1,3.1-3.1c1.7,0,3.1,1.4,3.1,3.1
				C541.3,667.1,539.9,668.4,538.2,668.4z"/>
			<ellipse class="st1" cx="538.2" cy="679.1" rx="3.1" ry="3.1"/>
			<path class="st1" d="M538.2,696c-1.7,0-3.1-1.4-3.1-3.1c0-1.7,1.4-3.1,3.1-3.1c1.7,0,3.1,1.4,3.1,3.1
				C541.3,694.6,539.9,696,538.2,696z"/>
			<path class="st1" d="M538.2,709.7c-1.7,0-3.1-1.4-3.1-3.1c0-1.7,1.4-3.1,3.1-3.1c1.7,0,3.1,1.4,3.1,3.1
				C541.3,708.3,539.9,709.7,538.2,709.7z"/>
			<ellipse class="st1" cx="536.1" cy="719.9" rx="3.1" ry="3.1"/>
			<ellipse class="st1" cx="530" cy="732.2" rx="3.1" ry="3.1"/>
			<ellipse class="st1" cx="520.2" cy="742.5" rx="3.1" ry="3.1"/>
			<ellipse class="st1" cx="508" cy="749" rx="3.1" ry="3.1"/>
			<ellipse class="st1" cx="494.8" cy="751.5" rx="3.1" ry="3.1"/>
			<ellipse class="st1" cx="481.1" cy="751.5" rx="3.1" ry="3.1"/>
			<ellipse class="st1" cx="467.3" cy="751.5" rx="3.1" ry="3.1"/>
			<ellipse class="st1" cx="453.6" cy="751.5" rx="3.1" ry="3.1"/>
			<ellipse class="st1" cx="439.8" cy="751.5" rx="3.1" ry="3.1"/>
			<ellipse class="st1" cx="426.1" cy="751.5" rx="3.1" ry="3.1"/>
			<ellipse class="st1" cx="412.3" cy="751.5" rx="3.1" ry="3.1"/>
			<ellipse class="st1" cx="398.5" cy="751.5" rx="3.1" ry="3.1"/>
			<ellipse class="st1" cx="384.8" cy="751.5" rx="3.1" ry="3.1"/>
			<ellipse class="st1" cx="371" cy="751.5" rx="3.1" ry="3.1"/>
			<ellipse class="st1" cx="357.2" cy="751.5" rx="3.1" ry="3.1"/>
			<ellipse class="st1" cx="343.5" cy="751.5" rx="3.1" ry="3.1"/>
			<ellipse class="st1" cx="329.7" cy="751.5" rx="3.1" ry="3.1"/>
			<ellipse class="st1" cx="316" cy="751.5" rx="3.1" ry="3.1"/>
			<ellipse class="st1" cx="302.2" cy="751.5" rx="3.1" ry="3.1"/>
			<ellipse class="st1" cx="288.4" cy="751.5" rx="3.1" ry="3.1"/>
			<ellipse class="st1" cx="274.7" cy="751.5" rx="3.1" ry="3.1"/>
			<ellipse class="st1" cx="260.9" cy="751.5" rx="3.1" ry="3.1"/>
			<ellipse class="st1" cx="247.1" cy="751.5" rx="3.1" ry="3.1"/>
			<ellipse class="st1" cx="233.4" cy="751.5" rx="3.1" ry="3.1"/>
		</g>
		<path class="st1" d="M448.5,706.2h-2.1c0-24.2,18.8-44.5,42.9-46.3l0.2,2.1C466.5,663.7,448.5,683.1,448.5,706.2z"/>
		<polygon class="st1" points="447.4,707.7 439.7,700 441.2,698.5 447.4,704.7 453.6,698.5 455.1,700 		"/>
		<g>
			<path class="st1" d="M618.4,691.1c-2.5,0-4.6-2-4.6-4.6c0-2.5,2-4.6,4.6-4.6c2.5,0,4.5,2,4.5,4.6
				C623,689,620.9,691.1,618.4,691.1z M618.4,684.1c-1.3,0-2.4,1.1-2.4,2.4c0,1.3,1.1,2.4,2.4,2.4c1.3,0,2.4-1.1,2.4-2.4
				C620.8,685.2,619.7,684.1,618.4,684.1z"/>
			<rect x="621.9" y="685.4" class="st1" width="115.6" height="2.1"/>
			<polygon class="st1" points="731.3,694.2 729.7,692.7 735.9,686.5 729.7,680.3 731.3,678.8 739,686.5 			"/>
		</g>
		<g>
			<rect x="628.1" y="603.7" class="st1" width="96.1" height="60.1"/>
			<rect x="632.3" y="607.9" class="st7" width="87.7" height="51.7"/>
			<polygon class="st1" points="667.1,623.3 685.3,633.8 667.1,644.2 			"/>
		</g>
		<path class="st1" d="M492.8,665.3c-2.5,0-4.5-2-4.5-4.6c0-2.5,2-4.6,4.5-4.6c2.5,0,4.6,2,4.6,4.6
			C497.4,663.3,495.3,665.3,492.8,665.3z M492.8,658.4c-1.3,0-2.4,1.1-2.4,2.4c0,1.3,1.1,2.4,2.4,2.4c1.3,0,2.4-1.1,2.4-2.4
			C495.2,659.5,494.1,658.4,492.8,658.4z"/>
		<g>
			<path class="st1" d="M734,323.6c-2.5,0-4.6-2-4.6-4.6c0-2.5,2-4.6,4.6-4.6s4.5,2,4.5,4.6C738.5,321.5,736.5,323.6,734,323.6z
				 M734,316.6c-1.3,0-2.4,1.1-2.4,2.4s1.1,2.4,2.4,2.4c1.3,0,2.4-1.1,2.4-2.4S735.3,316.6,734,316.6z"/>
			<rect x="614.9" y="317.9" class="st1" width="115.6" height="2.1"/>
			<polygon class="st1" points="621.1,326.7 613.4,319 621.1,311.3 622.7,312.8 616.5,319 622.7,325.2 			"/>
		</g>
		<g>
			<rect x="628.1" y="341.7" class="st1" width="96.1" height="68"/>
			<g>
				<g>
					<rect x="635.3" y="354.7" class="st6" width="46.7" height="31"/>
					<g>
						<g>
							<g>
								<rect x="641.1" y="374.6" class="st1" width="4.5" height="5.7"/>
								<rect x="648.7" y="364.3" class="st1" width="4.5" height="16"/>
								<rect x="656.4" y="371.4" class="st1" width="4.5" height="8.9"/>
								<rect x="664.1" y="361.7" class="st1" width="4.5" height="18.6"/>
								<rect x="671.7" y="360.2" class="st1" width="4.5" height="20.1"/>
							</g>
						</g>
						<g>
							<g>
								<rect x="641.1" y="378.8" class="st4" width="4.5" height="1.5"/>
								<rect x="648.7" y="376.4" class="st4" width="4.5" height="3.9"/>
								<rect x="656.4" y="377.5" class="st4" width="4.5" height="2.8"/>
								<rect x="664.1" y="374.4" class="st4" width="4.5" height="5.9"/>
								<rect x="671.7" y="375.3" class="st4" width="4.5" height="5"/>
							</g>
						</g>
					</g>
				</g>
				<g>
					<g>
						<rect x="696.5" y="354.7" class="st6" width="20.6" height="1.8"/>
						<g>
							<rect x="687.9" y="354.7" class="st4" width="7" height="1.8"/>
						</g>
						<rect x="687.9" y="360.2" class="st6" width="29.2" height="1.8"/>
						<rect x="687.9" y="365.6" class="st6" width="14.6" height="1.8"/>
					</g>
				</g>
				<g>
					<rect x="635.4" y="389.5" class="st4" width="81.7" height="1.8"/>
					<rect x="635.4" y="394.9" class="st6" width="40.9" height="1.8"/>
				</g>
			</g>
		</g>
	</g>
</g>
</svg>
